A glimps of the package morphRiver
…
Calculate curvature

Only the set of points is needed to calculate curvature:

rcurv=curvature(points) %>% points_to_linestring()
print(rcurv)

## Simple feature collection with 99 features and 2 fields
## geometry type:  LINESTRING
## dimension:      XY
## bbox:           xmin: 1968191 ymin: 8980648 xmax: 1979458 ymax: 8988157
## epsg (SRID):    NA
## proj4string:    NA
## # A tibble: 99 x 3
##        S      C                                                geom
##    <dbl>  <dbl>                                        <LINESTRING>
##  1  272. 0.188  (1968191 8980648, 1968192 8980784, 1968213 8980888)
##  2  483. 0.241  (1968213 8980888, 1968234 8980991, 1968272 8981070)
##  3  659. 0.189  (1968272 8981070, 1968309 8981150, 1968375 8981240)
##  4  882. 0.308  (1968375 8981240, 1968441 8981330, 1968535 8981399)
##  5 1117. 0.0328 (1968535 8981399, 1968630 8981469, 1968753 8981565)
##  6 1429. 0.123  (1968753 8981565, 1968876 8981662, 1969000 8981786)
##  7 1780. 0.388  (1969000 8981786, 1969123 8981910, 1969183 8982053)
##  8 2088. 0.110  (1969183 8982053, 1969242 8982195, 1969288 8982351)
##  9 2414. 0.219  (1969288 8982351, 1969333 8982507, 1969418 8982660)
## 10 2763. 0.315  (1969418 8982660, 1969502 8982813, 1969533 8982973)
## # ... with 89 more rows
…
Calculate elevation

To calculate the elevation we need the set of points as well as the raster DEM

relev=elevation(points,rasterDEM) %>% points_to_linestring()
print(relev)

## Simple feature collection with 99 features and 3 fields
## geometry type:  LINESTRING
## dimension:      XY
## bbox:           xmin: 1968191 ymin: 8980648 xmax: 1979458 ymax: 8988157
## epsg (SRID):    NA
## proj4string:    NA
## # A tibble: 99 x 4
##       id     S     Z                                                geom
##    <int> <dbl> <dbl>                                        <LINESTRING>
##  1  2001  272.   181 (1968191 8980648, 1968192 8980784, 1968213 8980888)
##  2  2002  483.   181 (1968213 8980888, 1968234 8980991, 1968272 8981070)
##  3  2003  659.   181 (1968272 8981070, 1968309 8981150, 1968375 8981240)
##  4  2004  882.   181 (1968375 8981240, 1968441 8981330, 1968535 8981399)
##  5  2005 1117.   181 (1968535 8981399, 1968630 8981469, 1968753 8981565)
##  6  2006 1429.   181 (1968753 8981565, 1968876 8981662, 1969000 8981786)
##  7  2007 1780.   180 (1969000 8981786, 1969123 8981910, 1969183 8982053)
##  8  2008 2088.   180 (1969183 8982053, 1969242 8982195, 1969288 8982351)
##  9  2009 2414.   180 (1969288 8982351, 1969333 8982507, 1969418 8982660)
## 10  2010 2763.   180 (1969418 8982660, 1969502 8982813, 1969533 8982973)
## # ... with 89 more rows
…
